1.	475970	Budai, Ondřej	FI N-AP AP [sem 3, roč 2]	k
2.	456600	Černaj, Erich	FI B-AP BcAP [sem 5, roč 3]	k
3.	445491	Elederová, Markéta	FI N-AP AP [sem 1, roč 1]	k
4.	395901	Jankůj, Jakub	FI N-AP AP [sem 1, roč 1]	k
5.	422778	Ježek, Tomáš	FI N-AP AP [sem 3, roč 2]	k
6.	445574	Kompišová, Barbora	FI N-AP AP [sem 1, roč 1]	k
7.	433345	Miková, Petra	FI N-AP SSME [sem 2, roč 1]	k
8.	422249	Páral, Jaroslav	FI N-IN EMB [sem 3, roč 2]	k
9.	433716	Polanský, Dan	FI N-AP SSME [sem 2, roč 1]	k
10.	422600	Priadka, Šimon	FI N-AP SSME [sem 1, roč 1]	k
11.	461477	Serebrianska, Daria	FI N-AP AP [sem 3, roč 2]	k
12.	423735	Sloupová, Kateřina	FI N-AP AP [sem 3, roč 2]	k
13.	409873	Šarmír, Jakub	FI N-AP SSME [sem 5, roč 3]	k
14.	410198	Šmitalová, Lenka	FI N-AP AP [sem 3, roč 2]	k
15.	467623	Trstenský, Samuel	ESF B-SI POIN [sem 3]	k
16.	433530	Filip Barič	FI N-AP AP [sem 3]	k
